[
    {
    "item" : {
            "id": "1",
            "img": "http://st4.imhonet.ru/element/45/a6/45a6a73ff0ea1df812af20c2dad4d3a9.jpg",
            "type": "film",
            "title": "Captain America: The Winter Soldier",
            "title_original": "Captain America: The Winter Soldier",
            "desctiption": "Steve Rogers struggles to embrace his role in the modern world and battles a new threat from old history: the Soviet agent known as the Winter Soldier.",
            "year": "2014",
            "loveComment": "вась вась"
        }
    },
    {
    "item" : {
            "id": "2",
            "img": "http://st4.imhonet.ru/element/45/a6/45a6a73ff0ea1df812af20c2dad4d3a9.jpg",
            "type": "film",
            "title": "Captain America: The Winter Soldier",
            "title_original": "Captain America: The Winter Soldier",
            "desctiption": "Steve Rogers struggles to embrace his role in the modern world and battles a new threat from old history: the Soviet agent known as the Winter Soldier.",
            "year": "2014",
            "loveComment": "вась вась"
        }
    },
    {
        "item" : {
            "id": "3",
            "img": "http://st4.imhonet.ru/element/45/a6/45a6a73ff0ea1df812af20c2dad4d3a9.jpg",
            "type": "film",
            "title": "Captain America: The Winter Soldier",
            "title_original": "Captain America: The Winter Soldier",
            "desctiption": "Steve Rogers struggles to embrace his role in the modern world and battles a new threat from old history: the Soviet agent known as the Winter Soldier.",
            "year": "2014"
        }
    },
    {
        "item" : {
            "id": "4",
            "img": "http://st4.imhonet.ru/element/45/a6/45a6a73ff0ea1df812af20c2dad4d3a9.jpg",
            "type": "film",
            "title": "Captain America: The Winter Soldier",
            "title_original": "Captain America: The Winter Soldier",
            "desctiption": "Steve Rogers struggles to embrace his role in the modern world and battles a new threat from old history: the Soviet agent known as the Winter Soldier.",
            "year": "2014"
        }
    },
    {
        "item" : {
            "id": "5",
            "img": "http://st4.imhonet.ru/element/45/a6/45a6a73ff0ea1df812af20c2dad4d3a9.jpg",
            "type": "film",
            "title": "Captain America: The Winter Soldier",
            "title_original": "Captain America: The Winter Soldier",
            "desctiption": "Steve Rogers struggles to embrace his role in the modern world and battles a new threat from old history: the Soviet agent known as the Winter Soldier.",
            "year": "2014",
            "loveComment": "вась вась"
        }
    },
    {
        "item" : {
            "id": "6",
            "type": "film",
            "img": "http://st4.imhonet.ru/element/45/a6/45a6a73ff0ea1df812af20c2dad4d3a9.jpg",
            "title": "Captain America: The Winter Soldier",
            "title_original": "Captain America: The Winter Soldier",
            "desctiption": "Steve Rogers struggles to embrace his role in the modern world and battles a new threat from old history: the Soviet agent known as the Winter Soldier.",
            "year": "2014"
        }
    },
    {
        "item" : {
            "id": "7",
            "type": "film",
            "img": "http://st4.imhonet.ru/element/45/a6/45a6a73ff0ea1df812af20c2dad4d3a9.jpg",
            "title": "Captain America: The Winter Soldier",
            "title_original": "Captain America: The Winter Soldier",
            "desctiption": "Steve Rogers struggles to embrace his role in the modern world and battles a new threat from old history: the Soviet agent known as the Winter Soldier.",
            "year": "2014"
        }
    },
    {
        "item" : {
            "id": "8",
            "img": "http://st4.imhonet.ru/element/45/a6/45a6a73ff0ea1df812af20c2dad4d3a9.jpg",
            "type": "film",
            "title": "Captain America: The Winter Soldier",
            "title_original": "Captain America: The Winter Soldier",
            "desctiption": "Steve Rogers struggles to embrace his role in the modern world and battles a new threat from old history: the Soviet agent known as the Winter Soldier.",
            "year": "2014"
        }
    },
    {
        "item" : {
            "id": "9",
            "img": "http://st4.imhonet.ru/element/45/a6/45a6a73ff0ea1df812af20c2dad4d3a9.jpg",
            "type": "film",
            "title": "Captain America: The Winter Soldier",
            "title_original": "Captain America: The Winter Soldier",
            "desctiption": "Steve Rogers struggles to embrace his role in the modern world and battles a new threat from old history: the Soviet agent known as the Winter Soldier.",
            "year": "2014",
            "loveComment": "вась вась"
        }
    },
    {
        "item" : {
            "id": "10",
            "img": "http://st4.imhonet.ru/element/45/a6/45a6a73ff0ea1df812af20c2dad4d3a9.jpg",
            "type": "film",
            "title": "Captain America: The Winter Soldier",
            "title_original": "Captain America: The Winter Soldier",
            "desctiption": "Steve Rogers struggles to embrace his role in the modern world and battles a new threat from old history: the Soviet agent known as the Winter Soldier.",
            "year": "2014"
        }
    },
    {
        "item" : {
            "id": "1",
            "img": "http://st4.imhonet.ru/element/45/a6/45a6a73ff0ea1df812af20c2dad4d3a9.jpg",
            "type": "film",
            "title": "Captain America: The Winter Soldier",
            "title_original": "Captain America: The Winter Soldier",
            "desctiption": "Steve Rogers struggles to embrace his role in the modern world and battles a new threat from old history: the Soviet agent known as the Winter Soldier.",
            "year": "2014"
        }
    },
    {
        "item" : {
            "id": "1",
            "img": "http://st4.imhonet.ru/element/45/a6/45a6a73ff0ea1df812af20c2dad4d3a9.jpg",
            "type": "film",
            "title": "Captain America: The Winter Soldier",
            "title_original": "Captain America: The Winter Soldier",
            "desctiption": "Steve Rogers struggles to embrace his role in the modern world and battles a new threat from old history: the Soviet agent known as the Winter Soldier.",
            "year": "2014",
            "loveComment": "вась вась"
        }
    },
    {
        "item" : {
            "id": "1",
            "type": "film",
            "img": "http://st4.imhonet.ru/element/45/a6/45a6a73ff0ea1df812af20c2dad4d3a9.jpg",
            "title": "Captain America: The Winter Soldier",
            "title_original": "Captain America: The Winter Soldier",
            "desctiption": "Steve Rogers struggles to embrace his role in the modern world and battles a new threat from old history: the Soviet agent known as the Winter Soldier.",
            "year": "2014"
        }
    },
    {
        "item" : {
            "id": "1",
            "type": "film",
            "img": "http://st4.imhonet.ru/element/45/a6/45a6a73ff0ea1df812af20c2dad4d3a9.jpg",
            "title": "Captain America: The Winter Soldier",
            "title_original": "Captain America: The Winter Soldier",
            "desctiption": "Steve Rogers struggles to embrace his role in the modern world and battles a new threat from old history: the Soviet agent known as the Winter Soldier.",
            "year": "2014"
        }
    },
    {
        "item" : {
            "id": "1",
            "img": "http://st4.imhonet.ru/element/45/a6/45a6a73ff0ea1df812af20c2dad4d3a9.jpg",
            "type": "film",
            "title": "Captain America: The Winter Soldier",
            "title_original": "Captain America: The Winter Soldier",
            "desctiption": "Steve Rogers struggles to embrace his role in the modern world and battles a new threat from old history: the Soviet agent known as the Winter Soldier.",
            "year": "2014"
        }
    },
    {
        "item" : {
            "id": "1",
            "img": "http://st4.imhonet.ru/element/45/a6/45a6a73ff0ea1df812af20c2dad4d3a9.jpg",
            "type": "film",
            "title": "Captain America: The Winter Soldier",
            "title_original": "Captain America: The Winter Soldier",
            "desctiption": "Steve Rogers struggles to embrace his role in the modern world and battles a new threat from old history: the Soviet agent known as the Winter Soldier.",
            "year": "2014"
        }
    },
    {
        "item" : {
            "id": "1",
            "img": "http://st4.imhonet.ru/element/45/a6/45a6a73ff0ea1df812af20c2dad4d3a9.jpg",
            "type": "film",
            "title": "Captain America: The Winter Soldier",
            "title_original": "Captain America: The Winter Soldier",
            "desctiption": "Steve Rogers struggles to embrace his role in the modern world and battles a new threat from old history: the Soviet agent known as the Winter Soldier.",
            "year": "2014"
        }
    },
    {
        "item" : {
            "id": "1",
            "img": "http://st4.imhonet.ru/element/45/a6/45a6a73ff0ea1df812af20c2dad4d3a9.jpg",
            "type": "film",
            "title": "Captain America: The Winter Soldier",
            "title_original": "Captain America: The Winter Soldier",
            "desctiption": "Steve Rogers struggles to embrace his role in the modern world and battles a new threat from old history: the Soviet agent known as the Winter Soldier.",
            "year": "2014"
        }
    },
    {
        "item" : {
            "id": "1",
            "img": "http://st4.imhonet.ru/element/45/a6/45a6a73ff0ea1df812af20c2dad4d3a9.jpg",
            "type": "film",
            "title": "Captain America: The Winter Soldier",
            "title_original": "Captain America: The Winter Soldier",
            "desctiption": "Steve Rogers struggles to embrace his role in the modern world and battles a new threat from old history: the Soviet agent known as the Winter Soldier.",
            "year": "2014"
        }
    },
    {
        "item" : {
            "id": "1",
            "type": "film",
            "img": "http://st4.imhonet.ru/element/45/a6/45a6a73ff0ea1df812af20c2dad4d3a9.jpg",
            "title": "Captain America: The Winter Soldier",
            "title_original": "Captain America: The Winter Soldier",
            "desctiption": "Steve Rogers struggles to embrace his role in the modern world and battles a new threat from old history: the Soviet agent known as the Winter Soldier.",
            "year": "2014",
            "loveComment": "вась вась"
        }
    },
    {
        "item" : {
            "id": "1",
            "type": "film",
            "img": "http://st4.imhonet.ru/element/45/a6/45a6a73ff0ea1df812af20c2dad4d3a9.jpg",
            "title": "Captain America: The Winter Soldier",
            "title_original": "Captain America: The Winter Soldier",
            "desctiption": "Steve Rogers struggles to embrace his role in the modern world and battles a new threat from old history: the Soviet agent known as the Winter Soldier.",
            "year": "2014"
        }
    },
    {
        "item" : {
            "id": "1",
            "img": "http://st4.imhonet.ru/element/45/a6/45a6a73ff0ea1df812af20c2dad4d3a9.jpg",
            "type": "film",
            "title": "Captain America: The Winter Soldier",
            "title_original": "Captain America: The Winter Soldier",
            "desctiption": "Steve Rogers struggles to embrace his role in the modern world and battles a new threat from old history: the Soviet agent known as the Winter Soldier.",
            "year": "2014"
        }
    },
    {
        "item" : {
            "id": "1",
            "img": "http://st4.imhonet.ru/element/45/a6/45a6a73ff0ea1df812af20c2dad4d3a9.jpg",
            "type": "film",
            "title": "Captain America: The Winter Soldier",
            "title_original": "Captain America: The Winter Soldier",
            "desctiption": "Steve Rogers struggles to embrace his role in the modern world and battles a new threat from old history: the Soviet agent known as the Winter Soldier.",
            "year": "2014"
        }
    },
    {
        "item" : {
            "id": "1",
            "img": "http://st4.imhonet.ru/element/45/a6/45a6a73ff0ea1df812af20c2dad4d3a9.jpg",
            "type": "film",
            "title": "Captain America: The Winter Soldier",
            "title_original": "Captain America: The Winter Soldier",
            "desctiption": "Steve Rogers struggles to embrace his role in the modern world and battles a new threat from old history: the Soviet agent known as the Winter Soldier.",
            "year": "2014"
        }
    },
    {
        "item" : {
            "id": "1",
            "img": "http://st4.imhonet.ru/element/45/a6/45a6a73ff0ea1df812af20c2dad4d3a9.jpg",
            "type": "film",
            "title": "Captain America: The Winter Soldier",
            "title_original": "Captain America: The Winter Soldier",
            "desctiption": "Steve Rogers struggles to embrace his role in the modern world and battles a new threat from old history: the Soviet agent known as the Winter Soldier.",
            "year": "2014",
            "loveComment": "вась вась"
        }
    },
    {
        "item" : {
            "id": "1",
            "img": "http://st4.imhonet.ru/element/45/a6/45a6a73ff0ea1df812af20c2dad4d3a9.jpg",
            "type": "film",
            "title": "Captain America: The Winter Soldier",
            "title_original": "Captain America: The Winter Soldier",
            "desctiption": "Steve Rogers struggles to embrace his role in the modern world and battles a new threat from old history: the Soviet agent known as the Winter Soldier.",
            "year": "2014"
        }
    },
    {
        "item" : {
            "id": "1",
            "type": "film",
            "img": "http://st4.imhonet.ru/element/45/a6/45a6a73ff0ea1df812af20c2dad4d3a9.jpg",
            "title": "Captain America: The Winter Soldier",
            "title_original": "Captain America: The Winter Soldier",
            "desctiption": "Steve Rogers struggles to embrace his role in the modern world and battles a new threat from old history: the Soviet agent known as the Winter Soldier.",
            "year": "2014"
        }
    },
    {
        "item" : {
            "id": "1",
            "type": "film",
            "img": "http://st4.imhonet.ru/element/45/a6/45a6a73ff0ea1df812af20c2dad4d3a9.jpg",
            "title": "Captain America: The Winter Soldier",
            "title_original": "Captain America: The Winter Soldier",
            "desctiption": "Steve Rogers struggles to embrace his role in the modern world and battles a new threat from old history: the Soviet agent known as the Winter Soldier.",
            "year": "2014"
        }
    },
    {
        "item" : {
            "id": "1",
            "img": "http://st4.imhonet.ru/element/45/a6/45a6a73ff0ea1df812af20c2dad4d3a9.jpg",
            "type": "film",
            "title": "Captain America: The Winter Soldier",
            "title_original": "Captain America: The Winter Soldier",
            "desctiption": "Steve Rogers struggles to embrace his role in the modern world and battles a new threat from old history: the Soviet agent known as the Winter Soldier.",
            "year": "2014"
        }
    },
    {
        "item" : {
            "id": "1",
            "img": "http://st4.imhonet.ru/element/45/a6/45a6a73ff0ea1df812af20c2dad4d3a9.jpg",
            "type": "film",
            "title": "Captain America: The Winter Soldier",
            "title_original": "Captain America: The Winter Soldier",
            "desctiption": "Steve Rogers struggles to embrace his role in the modern world and battles a new threat from old history: the Soviet agent known as the Winter Soldier.",
            "year": "2014",
            "loveComment": "вась вась"
        }
    },
    {
        "item" : {
            "id": "1",
            "img": "http://st4.imhonet.ru/element/45/a6/45a6a73ff0ea1df812af20c2dad4d3a9.jpg",
            "type": "film",
            "title": "Captain America: The Winter Soldier",
            "title_original": "Captain America: The Winter Soldier",
            "desctiption": "Steve Rogers struggles to embrace his role in the modern world and battles a new threat from old history: the Soviet agent known as the Winter Soldier.",
            "year": "2014"
        }
    },
    {
        "item" : {
            "id": "1",
            "img": "http://st4.imhonet.ru/element/45/a6/45a6a73ff0ea1df812af20c2dad4d3a9.jpg",
            "type": "film",
            "title": "Captain America: The Winter Soldier",
            "title_original": "Captain America: The Winter Soldier",
            "desctiption": "Steve Rogers struggles to embrace his role in the modern world and battles a new threat from old history: the Soviet agent known as the Winter Soldier.",
            "year": "2014"
        }
    },
    {
        "item" : {
            "id": "1",
            "img": "http://st4.imhonet.ru/element/45/a6/45a6a73ff0ea1df812af20c2dad4d3a9.jpg",
            "type": "film",
            "title": "Captain America: The Winter Soldier",
            "title_original": "Captain America: The Winter Soldier",
            "desctiption": "Steve Rogers struggles to embrace his role in the modern world and battles a new threat from old history: the Soviet agent known as the Winter Soldier.",
            "year": "2014"
        }
    },
    {
        "item" : {
            "id": "1",
            "type": "film",
            "img": "http://st4.imhonet.ru/element/45/a6/45a6a73ff0ea1df812af20c2dad4d3a9.jpg",
            "title": "Captain America: The Winter Soldier",
            "title_original": "Captain America: The Winter Soldier",
            "desctiption": "Steve Rogers struggles to embrace his role in the modern world and battles a new threat from old history: the Soviet agent known as the Winter Soldier.",
            "year": "2014",
            "loveComment": "вась вась"
        }
    },
    {
        "item" : {
            "id": "1",
            "type": "film",
            "img": "http://st4.imhonet.ru/element/45/a6/45a6a73ff0ea1df812af20c2dad4d3a9.jpg",
            "title": "Captain America: The Winter Soldier",
            "title_original": "Captain America: The Winter Soldier",
            "desctiption": "Steve Rogers struggles to embrace his role in the modern world and battles a new threat from old history: the Soviet agent known as the Winter Soldier.",
            "year": "2014"
        }
    },
    {
        "item" : {
            "id": "1",
            "img": "http://st4.imhonet.ru/element/45/a6/45a6a73ff0ea1df812af20c2dad4d3a9.jpg",
            "type": "film",
            "title": "Captain America: The Winter Soldier",
            "title_original": "Captain America: The Winter Soldier",
            "desctiption": "Steve Rogers struggles to embrace his role in the modern world and battles a new threat from old history: the Soviet agent known as the Winter Soldier.",
            "year": "2014"
        }
    },
    {
        "item" : {
            "id": "1",
            "img": "http://st4.imhonet.ru/element/45/a6/45a6a73ff0ea1df812af20c2dad4d3a9.jpg",
            "type": "film",
            "title": "Captain America: The Winter Soldier",
            "title_original": "Captain America: The Winter Soldier",
            "desctiption": "Steve Rogers struggles to embrace his role in the modern world and battles a new threat from old history: the Soviet agent known as the Winter Soldier.",
            "year": "2014"
        }
    },
    {
        "item" : {
            "id": "1",
            "img": "http://st4.imhonet.ru/element/45/a6/45a6a73ff0ea1df812af20c2dad4d3a9.jpg",
            "type": "film",
            "title": "Captain America: The Winter Soldier",
            "title_original": "Captain America: The Winter Soldier",
            "desctiption": "Steve Rogers struggles to embrace his role in the modern world and battles a new threat from old history: the Soviet agent known as the Winter Soldier.",
            "year": "2014"
        }
    },
    {
        "item" : {
            "id": "1",
            "img": "http://st4.imhonet.ru/element/45/a6/45a6a73ff0ea1df812af20c2dad4d3a9.jpg",
            "type": "film",
            "title": "Captain America: The Winter Soldier",
            "title_original": "Captain America: The Winter Soldier",
            "desctiption": "Steve Rogers struggles to embrace his role in the modern world and battles a new threat from old history: the Soviet agent known as the Winter Soldier.",
            "year": "2014",
            "loveComment": "вась вась"
        }
    },
    {
        "item" : {
            "id": "1",
            "img": "http://st4.imhonet.ru/element/45/a6/45a6a73ff0ea1df812af20c2dad4d3a9.jpg",
            "type": "film",
            "title": "Captain America: The Winter Soldier",
            "title_original": "Captain America: The Winter Soldier",
            "desctiption": "Steve Rogers struggles to embrace his role in the modern world and battles a new threat from old history: the Soviet agent known as the Winter Soldier.",
            "year": "2014"
        }
    },
    {
        "item" : {
            "id": "1",
            "type": "film",
            "img": "http://st4.imhonet.ru/element/45/a6/45a6a73ff0ea1df812af20c2dad4d3a9.jpg",
            "title": "Captain America: The Winter Soldier",
            "title_original": "Captain America: The Winter Soldier",
            "desctiption": "Steve Rogers struggles to embrace his role in the modern world and battles a new threat from old history: the Soviet agent known as the Winter Soldier.",
            "year": "2014"
        }
    },
    {
        "item" : {
            "id": "1",
            "type": "film",
            "img": "http://st4.imhonet.ru/element/45/a6/45a6a73ff0ea1df812af20c2dad4d3a9.jpg",
            "title": "Captain America: The Winter Soldier",
            "title_original": "Captain America: The Winter Soldier",
            "desctiption": "Steve Rogers struggles to embrace his role in the modern world and battles a new threat from old history: the Soviet agent known as the Winter Soldier.",
            "year": "2014"
        }
    },
    {
        "item" : {
            "id": "1",
            "img": "http://st4.imhonet.ru/element/45/a6/45a6a73ff0ea1df812af20c2dad4d3a9.jpg",
            "type": "film",
            "title": "Captain America: The Winter Soldier",
            "title_original": "Captain America: The Winter Soldier",
            "desctiption": "Steve Rogers struggles to embrace his role in the modern world and battles a new threat from old history: the Soviet agent known as the Winter Soldier.",
            "year": "2014",
            "loveComment": "вась вась"
        }
    },
    {
        "item" : {
            "id": "1",
            "img": "http://st4.imhonet.ru/element/45/a6/45a6a73ff0ea1df812af20c2dad4d3a9.jpg",
            "type": "film",
            "title": "Captain America: The Winter Soldier",
            "title_original": "Captain America: The Winter Soldier",
            "desctiption": "Steve Rogers struggles to embrace his role in the modern world and battles a new threat from old history: the Soviet agent known as the Winter Soldier.",
            "year": "2014"
        }
    },
    {
        "item" : {
            "id": "1",
            "img": "http://st4.imhonet.ru/element/45/a6/45a6a73ff0ea1df812af20c2dad4d3a9.jpg",
            "type": "film",
            "title": "Captain America: The Winter Soldier",
            "title_original": "Captain America: The Winter Soldier",
            "desctiption": "Steve Rogers struggles to embrace his role in the modern world and battles a new threat from old history: the Soviet agent known as the Winter Soldier.",
            "year": "2014"
        }
    },
    {
        "item" : {
            "id": "1",
            "img": "http://st4.imhonet.ru/element/45/a6/45a6a73ff0ea1df812af20c2dad4d3a9.jpg",
            "type": "film",
            "title": "Captain America: The Winter Soldier",
            "title_original": "Captain America: The Winter Soldier",
            "desctiption": "Steve Rogers struggles to embrace his role in the modern world and battles a new threat from old history: the Soviet agent known as the Winter Soldier.",
            "year": "2014"
        }
    },
    {
        "item" : {
            "id": "1",
            "img": "http://st4.imhonet.ru/element/45/a6/45a6a73ff0ea1df812af20c2dad4d3a9.jpg",
            "type": "film",
            "title": "Captain America: The Winter Soldier",
            "title_original": "Captain America: The Winter Soldier",
            "desctiption": "Steve Rogers struggles to embrace his role in the modern world and battles a new threat from old history: the Soviet agent known as the Winter Soldier.",
            "year": "2014"
        }
    },
    {
        "item" : {
            "id": "1",
            "type": "film",
            "img": "http://st4.imhonet.ru/element/45/a6/45a6a73ff0ea1df812af20c2dad4d3a9.jpg",
            "title": "Captain America: The Winter Soldier",
            "title_original": "Captain America: The Winter Soldier",
            "desctiption": "Steve Rogers struggles to embrace his role in the modern world and battles a new threat from old history: the Soviet agent known as the Winter Soldier.",
            "year": "2014"
        }
    },
    {
        "item" : {
            "id": "1",
            "type": "film",
            "img": "http://st4.imhonet.ru/element/45/a6/45a6a73ff0ea1df812af20c2dad4d3a9.jpg",
            "title": "Captain America: The Winter Soldier",
            "title_original": "Captain America: The Winter Soldier",
            "desctiption": "Steve Rogers struggles to embrace his role in the modern world and battles a new threat from old history: the Soviet agent known as the Winter Soldier.",
            "year": "2014"
        }
    },
    {
        "item" : {
            "id": "1",
            "img": "http://st4.imhonet.ru/element/45/a6/45a6a73ff0ea1df812af20c2dad4d3a9.jpg",
            "type": "film",
            "title": "Captain America: The Winter Soldier",
            "title_original": "Captain America: The Winter Soldier",
            "desctiption": "Steve Rogers struggles to embrace his role in the modern world and battles a new threat from old history: the Soviet agent known as the Winter Soldier.",
            "year": "2014"
        }
    },
    {
        "item" : {
            "id": "1",
            "img": "http://st4.imhonet.ru/element/45/a6/45a6a73ff0ea1df812af20c2dad4d3a9.jpg",
            "type": "film",
            "title": "Captain America: The Winter Soldier",
            "title_original": "Captain America: The Winter Soldier",
            "desctiption": "Steve Rogers struggles to embrace his role in the modern world and battles a new threat from old history: the Soviet agent known as the Winter Soldier.",
            "year": "2014"
        }
    },
    {
        "item" : {
            "id": "1",
            "img": "http://st4.imhonet.ru/element/45/a6/45a6a73ff0ea1df812af20c2dad4d3a9.jpg",
            "type": "film",
            "title": "Captain America: The Winter Soldier",
            "title_original": "Captain America: The Winter Soldier",
            "desctiption": "Steve Rogers struggles to embrace his role in the modern world and battles a new threat from old history: the Soviet agent known as the Winter Soldier.",
            "year": "2014"
        }
    },
    {
        "item" : {
            "id": "1",
            "img": "http://st4.imhonet.ru/element/45/a6/45a6a73ff0ea1df812af20c2dad4d3a9.jpg",
            "type": "film",
            "title": "Captain America: The Winter Soldier",
            "title_original": "Captain America: The Winter Soldier",
            "desctiption": "Steve Rogers struggles to embrace his role in the modern world and battles a new threat from old history: the Soviet agent known as the Winter Soldier.",
            "year": "2014"
        }
    },
    {
        "item" : {
            "id": "1",
            "img": "http://st4.imhonet.ru/element/45/a6/45a6a73ff0ea1df812af20c2dad4d3a9.jpg",
            "type": "film",
            "title": "Captain America: The Winter Soldier",
            "title_original": "Captain America: The Winter Soldier",
            "desctiption": "Steve Rogers struggles to embrace his role in the modern world and battles a new threat from old history: the Soviet agent known as the Winter Soldier.",
            "year": "2014"
        }
    },
    {
        "item" : {
            "id": "1",
            "type": "film",
            "img": "http://st4.imhonet.ru/element/45/a6/45a6a73ff0ea1df812af20c2dad4d3a9.jpg",
            "title": "Captain America: The Winter Soldier",
            "title_original": "Captain America: The Winter Soldier",
            "desctiption": "Steve Rogers struggles to embrace his role in the modern world and battles a new threat from old history: the Soviet agent known as the Winter Soldier.",
            "year": "2014",
            "loveComment": "вась вась"
        }
    },
    {
        "item" : {
            "id": "1",
            "type": "film",
            "img": "http://st4.imhonet.ru/element/45/a6/45a6a73ff0ea1df812af20c2dad4d3a9.jpg",
            "title": "Captain America: The Winter Soldier",
            "title_original": "Captain America: The Winter Soldier",
            "desctiption": "Steve Rogers struggles to embrace his role in the modern world and battles a new threat from old history: the Soviet agent known as the Winter Soldier.",
            "year": "2014"
        }
    },
    {
        "item" : {
            "id": "1",
            "img": "http://st4.imhonet.ru/element/45/a6/45a6a73ff0ea1df812af20c2dad4d3a9.jpg",
            "type": "film",
            "title": "Captain America: The Winter Soldier",
            "title_original": "Captain America: The Winter Soldier",
            "desctiption": "Steve Rogers struggles to embrace his role in the modern world and battles a new threat from old history: the Soviet agent known as the Winter Soldier.",
            "year": "2014"
        }
    },
    {
        "item" : {
            "id": "1",
            "img": "http://st4.imhonet.ru/element/45/a6/45a6a73ff0ea1df812af20c2dad4d3a9.jpg",
            "type": "film",
            "title": "Captain America: The Winter Soldier",
            "title_original": "Captain America: The Winter Soldier",
            "desctiption": "Steve Rogers struggles to embrace his role in the modern world and battles a new threat from old history: the Soviet agent known as the Winter Soldier.",
            "year": "2014"
        }
    },
    {
        "item" : {
            "id": "1",
            "img": "http://st4.imhonet.ru/element/45/a6/45a6a73ff0ea1df812af20c2dad4d3a9.jpg",
            "type": "film",
            "title": "Captain America: The Winter Soldier",
            "title_original": "Captain America: The Winter Soldier",
            "desctiption": "Steve Rogers struggles to embrace his role in the modern world and battles a new threat from old history: the Soviet agent known as the Winter Soldier.",
            "year": "2014"
        }
    },
    {
        "item" : {
            "id": "1",
            "img": "http://st4.imhonet.ru/element/45/a6/45a6a73ff0ea1df812af20c2dad4d3a9.jpg",
            "type": "film",
            "title": "Captain America: The Winter Soldier",
            "title_original": "Captain America: The Winter Soldier",
            "desctiption": "Steve Rogers struggles to embrace his role in the modern world and battles a new threat from old history: the Soviet agent known as the Winter Soldier.",
            "year": "2014"
        }
    },
    {
        "item" : {
            "id": "1",
            "img": "http://st4.imhonet.ru/element/45/a6/45a6a73ff0ea1df812af20c2dad4d3a9.jpg",
            "type": "film",
            "title": "Captain America: The Winter Soldier",
            "title_original": "Captain America: The Winter Soldier",
            "desctiption": "Steve Rogers struggles to embrace his role in the modern world and battles a new threat from old history: the Soviet agent known as the Winter Soldier.",
            "year": "2014"
        }
    },
    {
        "item" : {
            "id": "1",
            "type": "film",
            "img": "http://st4.imhonet.ru/element/45/a6/45a6a73ff0ea1df812af20c2dad4d3a9.jpg",
            "title": "Captain America: The Winter Soldier",
            "title_original": "Captain America: The Winter Soldier",
            "desctiption": "Steve Rogers struggles to embrace his role in the modern world and battles a new threat from old history: the Soviet agent known as the Winter Soldier.",
            "year": "2014"
        }
    },
    {
        "item" : {
            "id": "1",
            "type": "film",
            "img": "http://st4.imhonet.ru/element/45/a6/45a6a73ff0ea1df812af20c2dad4d3a9.jpg",
            "title": "Captain America: The Winter Soldier",
            "title_original": "Captain America: The Winter Soldier",
            "desctiption": "Steve Rogers struggles to embrace his role in the modern world and battles a new threat from old history: the Soviet agent known as the Winter Soldier.",
            "year": "2014"
        }
    }

]